{
  "kind": "collectionType",
  "collectionName": "portals",
  "info": {
    "singularName": "portal",
    "pluralName": "portals",
    "displayName": "Portal",
    "description": ""
  },
  "options": {
    "draftAndPublish": true
  },
  "pluginOptions": {},
  "attributes": {
    "name": {
      "type": "string"
    },
    "channel": {
      "type": "string"
    }
  }
}
